04-procesamiento-flujos-tarea
…
## [1] "0101010000"

Simulamos unos datos y calculamos la cubeta para cada dato:

n <- 500000
df <- data_frame(num_distintos = 1:n) %>%
      mutate(id = as.character(sample.int(52345678, n, replace = FALSE))) %>%
      mutate(hash = map(id, hash_1)) %>%
      mutate(cubeta = map_chr(hash, cubeta))
df

## # A tibble: 500,000 x 4
##    num_distintos id       hash       cubeta    
##            <int> <chr>    <list>     <chr>     
##  1             1 12638327 <raw [32]> 0000000000
##  2             2 32768794 <raw [32]> 0001010101
##  3             3 35769702 <raw [32]> 0100000000
##  4             4 49696296 <raw [32]> 0000000101
##  5             5 25500838 <raw [32]> 0001000001
##  6             6 21102554 <raw [32]> 0000010000
##  7             7 23517787 <raw [32]> 0000010100
##  8             8 46271047 <raw [32]> 0000010100
##  9             9 23945948 <raw [32]> 0000000100
## 10            10 25704509 <raw [32]> 0001010101
## # ... with 499,990 more rows

Y calculamos la longitud de la cola:

df <- df %>% mutate(tail = map_int(hash, tail_length_lead))
df      

## # A tibble: 500,000 x 5
##    num_distintos id       hash       cubeta      tail
##            <int> <chr>    <list>     <chr>      <int>
##  1             1 12638327 <raw [32]> 0000000000     1
##  2             2 32768794 <raw [32]> 0001010101     2
##  3             3 35769702 <raw [32]> 0100000000     2
##  4             4 49696296 <raw [32]> 0000000101     2
##  5             5 25500838 <raw [32]> 0001000001     6
##  6             6 21102554 <raw [32]> 0000010000     1
##  7             7 23517787 <raw [32]> 0000010100     1
##  8             8 46271047 <raw [32]> 0000010100     1
##  9             9 23945948 <raw [32]> 0000000100     3
## 10            10 25704509 <raw [32]> 0001010101     2
## # ... with 499,990 more rows

Ahora vemos cmo calcular nuestra estimacin. cuando hay 50 mil distintos, calculamos mximo por cubeta

resumen_50 <- df %>% filter(num_distintos <= 50000) %>% 
    group_by(cubeta) %>% 
    summarise(tail_max = max(tail))
resumen_50

## # A tibble: 32 x 2
##    cubeta     tail_max
##    <chr>         <dbl>
##  1 0000000000       12
##  2 0000000001       14
##  3 0000000100       10
##  4 0000000101       11
##  5 0000010000       11
##  6 0000010001       12
##  7 0000010100       10
##  8 0000010101       10
##  9 0001000000       12
## 10 0001000001       12
## # ... with 22 more rows
…
